%YAML 1.1
%TAG !u! tag:unity3d.com,2011:
--- !u!114 &-8297344819551188599
MonoBehaviour:
  m_ObjectHideFlags: 0
  m_CorrespondingSourceObject: {fileID: 0}
  m_PrefabInstance: {fileID: 0}
  m_PrefabAsset: {fileID: 0}
  m_GameObject: {fileID: 919886629885336740}
  m_Enabled: 1
  m_EditorHideFlags: 0
  m_Script: {fileID: 11500000, guid: 612ca9b95467f4b438f23f6bcae7abc2, type: 3}
  m_Name: 
  m_EditorClassIdentifier: 
--- !u!1001 &8994029010280705321
PrefabInstance:
  m_ObjectHideFlags: 0
  serializedVersion: 2
  m_Modification:
    m_TransformParent: {fileID: 0}
    m_Modifications:
    - target: {fileID: 8076411807782449549, guid: 9e4e58f96d062044f927595780c98e24,
        type: 3}
      propertyPath: m_Name
      value: Eatable
      objectReference: {fileID: 0}
    - target: {fileID: 8077370600484332263, guid: 9e4e58f96d062044f927595780c98e24,
        type: 3}
      propertyPath: m_LocalPosition.x
      value: 0
      objectReference: {fileID: 0}
    - target: {fileID: 8077370600484332263, guid: 9e4e58f96d062044f927595780c98e24,
        type: 3}
      propertyPath: m_LocalPosition.y
      value: 0
      objectReference: {fileID: 0}
    - target: {fileID: 8077370600484332263, guid: 9e4e58f96d062044f927595780c98e24,
        type: 3}
      propertyPath: m_LocalPosition.z
      value: 0
      objectReference: {fileID: 0}
    - target: {fileID: 8077370600484332263, guid: 9e4e58f96d062044f927595780c98e24,
        type: 3}
      propertyPath: m_LocalRotation.x
      value: -0
      objectReference: {fileID: 0}
    - target: {fileID: 8077370600484332263, guid: 9e4e58f96d062044f927595780c98e24,
        type: 3}
      propertyPath: m_LocalRotation.y
      value: -0
      objectReference: {fileID: 0}
    - target: {fileID: 8077370600484332263, guid: 9e4e58f96d062044f927595780c98e24,
        type: 3}
      propertyPath: m_LocalRotation.z
      value: -0
      objectReference: {fileID: 0}
    - target: {fileID: 8077370600484332263, guid: 9e4e58f96d062044f927595780c98e24,
        type: 3}
      propertyPath: m_LocalRotation.w
      value: 1
      objectReference: {fileID: 0}
    - target: {fileID: 8077370600484332263, guid: 9e4e58f96d062044f927595780c98e24,
        type: 3}
      propertyPath: m_RootOrder
      value: 0
      objectReference: {fileID: 0}
    - target: {fileID: 8077370600484332263, guid: 9e4e58f96d062044f927595780c98e24,
        type: 3}
      propertyPath: m_LocalEulerAnglesHint.x
      value: 0
      objectReference: {fileID: 0}
    - target: {fileID: 8077370600484332263, guid: 9e4e58f96d062044f927595780c98e24,
        type: 3}
      propertyPath: m_LocalEulerAnglesHint.y
      value: 0
      objectReference: {fileID: 0}
    - target: {fileID: 8077370600484332263, guid: 9e4e58f96d062044f927595780c98e24,
        type: 3}
      propertyPath: m_LocalEulerAnglesHint.z
      value: 0
      objectReference: {fileID: 0}
    m_RemovedComponents: []
  m_SourcePrefab: {fileID: 100100000, guid: 9e4e58f96d062044f927595780c98e24, type: 3}
--- !u!1 &919886629885336740 stripped
GameObject:
  m_CorrespondingSourceObject: {fileID: 8076411807782449549, guid: 9e4e58f96d062044f927595780c98e24,
    type: 3}
  m_PrefabInstance: {fileID: 8994029010280705321}
  m_PrefabAsset: {fileID: 0}
